signIn,xpath,"//span[contains(.,'Sign in')]"
home,xpath,"(//a[contains(.,'Home')])[2]"
news,xpath,"(//a[contains(.,'News')])[1]"
sport,xpath,"(//a[contains(.,'Sport')])[1]"
reel,xpath,"(//a[contains(.,'Reel')])[1]"